Images,Dimensionality Reduction Algorithms
Images,Evolutionary algorithms
Images,Instance-based Algorithms
Images,Regularization Algorithms
Tables,Dimensionality Reduction Algorithms
Tables,Evolutionary algorithms
Tables,Instance-based Algorithms
Tables,Regularization Algorithms
Text,Dimensionality Reduction Algorithms
Text,Evolutionary algorithms
Text,Instance-based Algorithms
Text,Regularization Algorithms
Time series,Dimensionality Reduction Algorithms
Time series,Evolutionary algorithms
Time series,Instance-based Algorithms
Time series,Regularization Algorithms
Video,Dimensionality Reduction Algorithms
Video,Evolutionary algorithms
Video,Instance-based Algorithms
Video,Regularization Algorithms
